010000000000000000000000
101100000000000000000000
010110000000000000000000
011011100000000000000000
001101011000000000000000
000110100000000000000000
000101000000000000000000
000010001111100000000000
000010010100000000000000
000000011010000000000000
000000010101000010000000
000000010010100110000000
000000010001001100000000
000000000000001100000000
000000000000110100000000
000000000001111011000000
000000000011000101100000
000000000000000110101110
000000000000000011011000
000000000000000000101000
000000000000000001110101
000000000000000000101011
000000000000000001000010
000000000000000000001100